CSE_BUBBLE/MipsCPU_tb.vcd
$date
	Sun Jul 16 22:30:28 2023
$end
$version
	Icarus Verilog
$end
$timescale
	1s
$end
$scope module MipsCPU_tb $end
$var wire 5 ! write_reg [4:0] $end
$var wire 32 " write_data_reg [31:0] $end
$var wire 32 # shiftout [31:0] $end
$var wire 1 $ reg_write $end
$var wire 1 % reg_dst $end
$var wire 32 & pc_out [31:0] $end
$var wire 32 ' pc_in [31:0] $end
$var wire 1 ( mem_write $end
$var wire 1 ) mem_to_reg $end
$var wire 1 * mem_read $end
$var wire 32 + inst [31:0] $end
$var wire 32 , extend32 [31:0] $end
$var wire 1 - branch $end
$var wire 1 . alusrc $end
$var wire 2 / aluop [1:0] $end
$var wire 4 0 aluctrl [3:0] $end
$var wire 32 1 alu_b [31:0] $end
$var wire 1 2 Zero $end
$var wire 32 3 ReadData [31:0] $end
$var wire 32 4 Data2 [31:0] $end
$var wire 32 5 Data1 [31:0] $end
$var wire 1 6 AndGateOut $end
$var wire 32 7 Add_ALUOut [31:0] $end
$var wire 32 8 ALUOut [31:0] $end
$var reg 1 9 clk $end
$var reg 1 : rst $end
$scope module uut $end
$var wire 1 9 clk $end
$var wire 1 : rst $end
$var wire 32 ; shiftout [31:0] $end
$var wire 5 < write_reg [4:0] $end
$var wire 32 = write_data_reg [31:0] $end
$var wire 1 $ reg_write $end
$var wire 1 % reg_dst $end
$var wire 32 > pc_out [31:0] $end
$var wire 32 ? pc_in [31:0] $end
$var wire 1 ( mem_write $end
$var wire 1 ) mem_to_reg $end
$var wire 1 * mem_read $end
$var wire 32 @ inst [31:0] $end
$var wire 32 A extend32 [31:0] $end
$var wire 1 B dummy $end
$var wire 1 - branch $end
$var wire 1 . alusrc $end
$var wire 2 C aluop [1:0] $end
$var wire 4 D aluctrl [3:0] $end
$var wire 32 E alu_b [31:0] $end
$var wire 1 2 Zero $end
$var wire 32 F ReadData [31:0] $end
$var wire 32 G Data2 [31:0] $end
$var wire 32 H Data1 [31:0] $end
$var wire 1 6 AndGateOut $end
$var wire 32 I Add_ALUOut [31:0] $end
$var wire 32 J ALUOut [31:0] $end
$scope module alu_0 $end
$var wire 1 2 Zero $end
$var wire 32 K B [31:0] $end
$var wire 4 L ALUCtl [3:0] $end
$var wire 32 M A [31:0] $end
$var reg 32 N ALUOut [31:0] $end
$upscope $end
$scope module alu_1 $end
$var wire 4 O ALUCtl [3:0] $end
$var wire 32 P B [31:0] $end
$var wire 1 B Zero $end
$var wire 32 Q A [31:0] $end
$var reg 32 R ALUOut [31:0] $end
$upscope $end
$scope module alu_control_0 $end
$var wire 6 S FuncCode [5:0] $end
$var wire 2 T ALUOp [1:0] $end
$var reg 4 U ALUCtl [3:0] $end
$upscope $end
$scope module and_gate_0 $end
$var wire 1 6 AndGateOut $end
$var wire 1 2 Zero $end
$var wire 1 - Branch $end
$upscope $end
$scope module data_memory_0 $end
$var wire 7 V address [6:0] $end
$var wire 1 9 clock $end
$var wire 32 W WriteData [31:0] $end
$var wire 1 ( MemWrite $end
$var wire 1 * MemRead $end
$var reg 32 X ReadData [31:0] $end
$upscope $end
$scope module instmem_0 $end
$var wire 1 9 clock $end
$var wire 32 Y address [31:0] $end
$var reg 32 Z inst [31:0] $end
$upscope $end
$scope module main_control_0 $end
$var wire 6 [ opcode [5:0] $end
$var reg 2 \ alu_op [1:0] $end
$var reg 1 . alu_src $end
$var reg 1 - branch $end
$var reg 1 * mem_read $end
$var reg 1 ) mem_to_reg $end
$var reg 1 ( mem_write $end
$var reg 1 % reg_dst $end
$var reg 1 $ reg_write $end
$upscope $end
$scope module mu3_0 $end
$var wire 32 ] ALUOut [31:0] $end
$var wire 1 ) MemtoReg $end
$var wire 32 ^ ReadData [31:0] $end
$var wire 32 _ WriteData_Reg [31:0] $end
$upscope $end
$scope module mux1_0 $end
$var wire 1 % RegDst $end
$var wire 5 ` inst15_11 [15:11] $end
$var wire 5 a inst20_16 [20:16] $end
$var reg 5 b WriteReg [4:0] $end
$upscope $end
$scope module mux2_0 $end
$var wire 1 . ALUSrc $end
$var wire 32 c ReadData2 [31:0] $end
$var wire 32 d Extend32 [31:0] $end
$var reg 32 e ALU_B [31:0] $end
$upscope $end
$scope module mux4_0 $end
$var wire 32 f Add_ALUOut [31:0] $end
$var wire 1 6 AndGateOut $end
$var wire 32 g PCout [31:0] $end
$var reg 32 h PCin [31:0] $end
$upscope $end
$scope module pc_0 $end
$var wire 32 i PCin [31:0] $end
$var wire 1 9 clock $end
$var wire 1 : reset $end
$var reg 32 j PCout [31:0] $end
$upscope $end
$scope module regfile_0 $end
$var wire 32 k ReadData1 [31:0] $end
$var wire 32 l ReadData2 [31:0] $end
$var wire 5 m ReadReg1 [4:0] $end
$var wire 5 n ReadReg2 [4:0] $end
$var wire 1 $ RegWrite $end
$var wire 32 o WriteData [31:0] $end
$var wire 5 p WriteReg [4:0] $end
$var wire 1 9 clock $end
$upscope $end
$scope module sign_extend_0 $end
$var wire 16 q inst15_0 [15:0] $end
$var reg 32 r Extend32 [31:0] $end
$upscope $end
$upscope $end
$upscope $end
$enddefinitions $end
$comment Show the parameter values. $end
$dumpall
$end
#0
$dumpvars
bx r
bx q
bx p
bx o
bx n
bx m
bx l
bx k
bx j
b0 i
b0 h
bx g
bx f
bx e
bx d
bx c
bx b
bx a
bx `
bx _
bx ^
bx ]
bx \
bx [
bx Z
b0 Y
bx X
bx W
bx V
bx U
bx T
bx S
bx R
bx Q
bx P
b10 O
bx N
bx M
bx L
bx K
bx J
bx I
bx H
bx G
bx F
bx E
bx D
bx C
xB
bx A
bx @
b0 ?
bx >
bx =
bx <
bx ;
0:
09
bx 8
bx 7
x6
bx 5
bx 4
bx 3
x2
bx 1
bx 0
bx /
x.
x-
bx ,
bx +
x*
x)
x(
b0 '
bx &
x%
x$
bx #
bx "
bx !
$end
#5
b1 '
b1 ?
b1 Y
b1 h
b1 i
0B
b10100000100001 7
b10100000100001 I
b10100000100001 R
b10100000100001 f
b0 1
b0 E
b0 K
b0 e
b101 !
b101 <
b101 b
b101 p
b0 V
06
b0 "
b0 =
b0 _
b0 o
b10 0
b10 D
b10 L
b10 U
b10100000100000 #
b10100000100000 ;
b10100000100000 P
b10100000100000 ,
b10100000100000 A
b10100000100000 d
b10100000100000 r
12
b0 8
b0 J
b0 N
b0 ]
b10 /
b10 C
b10 T
b10 \
0-
0(
0*
1$
0)
0.
1%
b100000 S
b10100000100000 q
b0 4
b0 G
b0 W
b0 c
b0 l
b0 n
b0 5
b0 H
b0 M
b0 k
b100 m
b101 `
b0 a
b0 [
b1 &
b1 >
b1 Q
b1 g
b1 j
b100000000010100000100000 +
b100000000010100000100000 @
b100000000010100000100000 Z
19
#10
09
#15
b1011 "
b1011 =
b1011 _
b1011 o
b1011 V
02
b1011 8
b1011 J
b1011 N
b1011 ]
b10100000100010 7
b10100000100010 I
b10100000100010 R
b10100000100010 f
b10 '
b10 ?
b10 Y
b10 h
b10 i
b101 n
b1011 5
b1011 H
b1011 M
b1011 k
b1 m
b101 a
b1001010010100000100000 +
b1001010010100000100000 @
b1001010010100000100000 Z
b10 &
b10 >
b10 Q
b10 g
b10 j
19
#20
b10110 "
b10110 =
b10110 _
b10110 o
b10110 V
b10110 8
b10110 J
b10110 N
b10110 ]
b1011 1
b1011 E
b1011 K
b1011 e
b1011 4
b1011 G
b1011 W
b1011 c
b1011 l
09
#25
b1010000 3
b1010000 F
b1010000 X
b1010000 ^
b1011 V
02
b1011 8
b1011 J
b1011 N
b1011 ]
b1010000 "
b1010000 =
b1010000 _
b1010000 o
b10 0
b10 D
b10 L
b10 U
b0 #
b0 ;
b0 P
b0 ,
b0 A
b0 d
b0 r
b0 1
b0 E
b0 K
b0 e
b110 !
b110 <
b110 b
b110 p
b0 /
b0 C
b0 T
b0 \
1*
1)
1.
0%
b11 7
b11 I
b11 R
b11 f
b11 '
b11 ?
b11 Y
b11 h
b11 i
b0 S
b0 q
b10100 4
b10100 G
b10100 W
b10100 c
b10100 l
b110 n
b101 m
b0 `
b110 a
b100011 [
b11 &
b11 >
b11 Q
b11 g
b11 j
b10001100101001100000000000000000 +
b10001100101001100000000000000000 @
b10001100101001100000000000000000 Z
19
#30
b1010000 4
b1010000 G
b1010000 W
b1010000 c
b1010000 l
09
#35
b1010 "
b1010 =
b1010 _
b1010 o
b1010 3
b1010 F
b1010 X
b1010 ^
b1100 V
b1100 8
b1100 J
b1100 N
b1100 ]
b1 1
b1 E
b1 K
b1 e
b1 #
b1 ;
b1 P
b1 ,
b1 A
b1 d
b1 r
b111 !
b111 <
b111 b
b111 p
b101 7
b101 I
b101 R
b101 f
b100 '
b100 ?
b100 Y
b100 h
b100 i
b1 S
b1 q
b10100 4
b10100 G
b10100 W
b10100 c
b10100 l
b111 n
b111 a
b10001100101001110000000000000001 +
b10001100101001110000000000000001 @
b10001100101001110000000000000001 Z
b100 &
b100 >
b100 Q
b100 g
b100 j
19
#40
b1010 4
b1010 G
b1010 W
b1010 c
b1010 l
09
#45
12
b111 0
b111 D
b111 L
b111 U
b1010 1
b1010 E
b1010 K
b1010 e
b1000 !
b1000 <
b1000 b
b1000 p
b0 V
b0 "
b0 =
b0 _
b0 o
b100000000101010 #
b100000000101010 ;
b100000000101010 P
b100000000101010 ,
b100000000101010 A
b100000000101010 d
b100000000101010 r
b0 8
b0 J
b0 N
b0 ]
b10 /
b10 C
b10 T
b10 \
0*
0)
0.
1%
b100000000101111 7
b100000000101111 I
b100000000101111 R
b100000000101111 f
b101 '
b101 ?
b101 Y
b101 h
b101 i
b101010 S
b100000000101010 q
b1010000 5
b1010000 H
b1010000 M
b1010000 k
b110 m
b1000 `
b0 [
b101 &
b101 >
b101 Q
b101 g
b101 j
b110001110100000000101010 +
b110001110100000000101010 @
b110001110100000000101010 Z
19
#50
09
#55
06
b1 "
b1 =
b1 _
b1 o
b1 V
b1101 0
b1101 D
b1101 L
b1101 U
b10 #
b10 ;
b10 P
b10 ,
b10 A
b10 d
b10 r
b0 1
b0 E
b0 K
b0 e
02
b1 8
b1 J
b1 N
b1 ]
b0 !
b0 <
b0 b
b0 p
b11 /
b11 C
b11 T
b11 \
1-
0$
0%
b1000 7
b1000 I
b1000 R
b1000 f
b110 '
b110 ?
b110 Y
b110 h
b110 i
b10 S
b10 q
b0 4
b0 G
b0 W
b0 c
b0 l
b0 n
b0 5
b0 H
b0 M
b0 k
b1000 m
b0 `
b0 a
b101 [
b10101000000000000000000000010 +
b10101000000000000000000000010 @
b10101000000000000000000000010 Z
b110 &
b110 >
b110 Q
b110 g
b110 j
19
#60
09
#65
b10 0
b10 D
b10 L
b10 U
b1011 "
b1011 =
b1011 _
b1011 o
b1011 V
b0 #
b0 ;
b0 P
b0 ,
b0 A
b0 d
b0 r
b0 1
b0 E
b0 K
b0 e
02
b1011 8
b1011 J
b1011 N
b1011 ]
b111 !
b111 <
b111 b
b111 p
b0 /
b0 C
b0 T
b0 \
0-
1(
1.
b111 7
b111 I
b111 R
b111 f
b111 '
b111 ?
b111 Y
b111 h
b111 i
b0 S
b0 q
b1010 4
b1010 G
b1010 W
b1010 c
b1010 l
b111 n
b1011 5
b1011 H
b1011 M
b1011 k
b101 m
b111 a
b101011 [
b111 &
b111 >
b111 Q
b111 g
b111 j
b10101100101001110000000000000000 +
b10101100101001110000000000000000 @
b10101100101001110000000000000000 Z
19
#70
09
#75
b1100 "
b1100 =
b1100 _
b1100 o
b1100 V
b1100 8
b1100 J
b1100 N
b1100 ]
b1 1
b1 E
b1 K
b1 e
b1 #
b1 ;
b1 P
b1 ,
b1 A
b1 d
b1 r
b110 !
b110 <
b110 b
b110 p
b1001 7
b1001 I
b1001 R
b1001 f
b1000 '
b1000 ?
b1000 Y
b1000 h
b1000 i
b1 S
b1 q
b1010000 4
b1010000 G
b1010000 W
b1010000 c
b1010000 l
b110 n
b110 a
b10101100101001100000000000000001 +
b10101100101001100000000000000001 @
b10101100101001100000000000000001 Z
b1000 &
b1000 >
b1000 Q
b1000 g
b1000 j
19
#80
09
#85
b1 "
b1 =
b1 _
b1 o
b1 V
b1 8
b1 J
b1 N
b1 ]
b100 !
b100 <
b100 b
b100 p
0(
1$
b1010 7
b1010 I
b1010 R
b1010 f
b1001 '
b1001 ?
b1001 Y
b1001 h
b1001 i
b0 4
b0 G
b0 W
b0 c
b0 l
b100 n
b0 5
b0 H
b0 M
b0 k
b100 m
b100 a
b1000 [
b1001 &
b1001 >
b1001 Q
b1001 g
b1001 j
b100000100001000000000000000001 +
b100000100001000000000000000001 @
b100000100001000000000000000001 Z
19
#90
b10 "
b10 =
b10 _
b10 o
b10 V
b10 8
b10 J
b10 N
b10 ]
b1 5
b1 H
b1 M
b1 k
b1 4
b1 G
b1 W
b1 c
b1 l
09
#95
b110 0
b110 D
b110 L
b110 U
b0 1
b0 E
b0 K
b0 e
b1001 "
b1001 =
b1001 _
b1001 o
b1001 V
b100100000100010 #
b100100000100010 ;
b100100000100010 P
b100100000100010 ,
b100100000100010 A
b100100000100010 d
b100100000100010 r
b1001 8
b1001 J
b1001 N
b1001 ]
b1001 !
b1001 <
b1001 b
b1001 p
b10 /
b10 C
b10 T
b10 \
0.
1%
b100100000101100 7
b100100000101100 I
b100100000101100 R
b100100000101100 f
b1010 '
b1010 ?
b1010 Y
b1010 h
b1010 i
b100010 S
b100100000100010 q
b0 4
b0 G
b0 W
b0 c
b0 l
b10 n
b1001 5
b1001 H
b1001 M
b1001 k
b11 m
b1001 `
b10 a
b0 [
b11000100100100000100010 +
b11000100100100000100010 @
b11000100100100000100010 Z
b1010 &
b1010 >
b1010 Q
b1010 g
b1010 j
19
#100
09
#105
16
12
b0 "
b0 =
b0 _
b0 o
b0 V
b1101 0
b1101 D
b1101 L
b1101 U
b1111111111110101 #
b1111111111110101 ;
b1111111111110101 P
b1111111111110101 ,
b1111111111110101 A
b1111111111110101 d
b1111111111110101 r
b1001 1
b1001 E
b1001 K
b1001 e
b0 8
b0 J
b0 N
b0 ]
b1001 !
b1001 <
b1001 b
b1001 p
b11 /
b11 C
b11 T
b11 \
1-
0$
0%
b10000000000000000 7
b10000000000000000 I
b10000000000000000 R
b10000000000000000 f
b10000000000000000 '
b10000000000000000 ?
b10000000000000000 Y
b10000000000000000 h
b10000000000000000 i
b110101 S
b1111111111110101 q
b1001 4
b1001 G
b1001 W
b1001 c
b1001 l
b1001 n
b1 5
b1 H
b1 M
b1 k
b100 m
b11111 `
b1001 a
b101 [
b1011 &
b1011 >
b1011 Q
b1011 g
b1011 j
b10100100010011111111111110101 +
b10100100010011111111111110101 @
b10100100010011111111111110101 Z
19
#110
09
#115
b1 "
b1 =
b1 _
b1 o
b1 V
02
b1 8
b1 J
b1 N
b1 ]
b10 0
b10 D
b10 L
b10 U
b10000000000000001 '
b10000000000000001 ?
b10000000000000001 Y
b10000000000000001 h
b10000000000000001 i
06
b10100000100000 #
b10100000100000 ;
b10100000100000 P
b10100000100000 ,
b10100000100000 A
b10100000100000 d
b10100000100000 r
b0 1
b0 E
b0 K
b0 e
b101 !
b101 <
b101 b
b101 p
b10 /
b10 C
b10 T
b10 \
0-
1$
1%
b10010100000100001 7
b10010100000100001 I
b10010100000100001 R
b10010100000100001 f
b100000 S
b10100000100000 q
b0 4
b0 G
b0 W
b0 c
b0 l
b0 n
b101 `
b0 a
b0 [
b100000000010100000100000 +
b100000000010100000100000 @
b100000000010100000100000 Z
b10000000000000001 &
b10000000000000001 >
b10000000000000001 Q
b10000000000000001 g
b10000000000000001 j
19
#120
09
#125
b1100 "
b1100 =
b1100 _
b1100 o
b1100 V
b1 1
b1 E
b1 K
b1 e
b1100 8
b1100 J
b1100 N
b1100 ]
b10010100000100010 7
b10010100000100010 I
b10010100000100010 R
b10010100000100010 f
b10000000000000010 '
b10000000000000010 ?
b10000000000000010 Y
b10000000000000010 h
b10000000000000010 i
b1 4
b1 G
b1 W
b1 c
b1 l
b101 n
b1011 5
b1011 H
b1011 M
b1011 k
b1 m
b101 a
b10000000000000010 &
b10000000000000010 >
b10000000000000010 Q
b10000000000000010 g
b10000000000000010 j
b1001010010100000100000 +
b1001010010100000100000 @
b1001010010100000100000 Z
19
#130
b10111 "
b10111 =
b10111 _
b10111 o
b10111 V
b10111 8
b10111 J
b10111 N
b10111 ]
b1100 1
b1100 E
b1100 K
b1100 e
b1100 4
b1100 G
b1100 W
b1100 c
b1100 l
09
#135
02
b1010000 3
b1010000 F
b1010000 X
b1010000 ^
b1100 V
b1010000 "
b1010000 =
b1010000 _
b1010000 o
b10 0
b10 D
b10 L
b10 U
b0 #
b0 ;
b0 P
b0 ,
b0 A
b0 d
b0 r
b0 1
b0 E
b0 K
b0 e
b1100 8
b1100 J
b1100 N
b1100 ]
b110 !
b110 <
b110 b
b110 p
b0 /
b0 C
b0 T
b0 \
1*
1)
1.
0%
b10000000000000011 7
b10000000000000011 I
b10000000000000011 R
b10000000000000011 f
b10000000000000011 '
b10000000000000011 ?
b10000000000000011 Y
b10000000000000011 h
b10000000000000011 i
b0 S
b0 q
b1010000 4
b1010000 G
b1010000 W
b1010000 c
b1010000 l
b110 n
b1100 5
b1100 H
b1100 M
b1100 k
b101 m
b0 `
b110 a
b100011 [
b10001100101001100000000000000000 +
b10001100101001100000000000000000 @
b10001100101001100000000000000000 Z
b10000000000000011 &
b10000000000000011 >
b10000000000000011 Q
b10000000000000011 g
b10000000000000011 j
19
#140
09
#145
b0 "
b0 =
b0 _
b0 o
b0 3
b0 F
b0 X
b0 ^
b1101 V
b1101 8
b1101 J
b1101 N
b1101 ]
b1 1
b1 E
b1 K
b1 e
b1 #
b1 ;
b1 P
b1 ,
b1 A
b1 d
b1 r
b111 !
b111 <
b111 b
b111 p
b10000000000000101 7
b10000000000000101 I
b10000000000000101 R
b10000000000000101 f
b10000000000000100 '
b10000000000000100 ?
b10000000000000100 Y
b10000000000000100 h
b10000000000000100 i
b1 S
b1 q
b1010 4
b1010 G
b1010 W
b1010 c
b1010 l
b111 n
b111 a
b10000000000000100 &
b10000000000000100 >
b10000000000000100 Q
b10000000000000100 g
b10000000000000100 j
b10001100101001110000000000000001 +
b10001100101001110000000000000001 @
b10001100101001110000000000000001 Z
19
#150
b0 4
b0 G
b0 W
b0 c
b0 l
09
#155
12
b111 0
b111 D
b111 L
b111 U
b0 1
b0 E
b0 K
b0 e
b1000 !
b1000 <
b1000 b
b1000 p
b0 V
b0 "
b0 =
b0 _
b0 o
b100000000101010 #
b100000000101010 ;
b100000000101010 P
b100000000101010 ,
b100000000101010 A
b100000000101010 d
b100000000101010 r
b0 8
b0 J
b0 N
b0 ]
b10 /
b10 C
b10 T
b10 \
0*
0)
0.
1%
b10100000000101111 7
b10100000000101111 I
b10100000000101111 R
b10100000000101111 f
b10000000000000101 '
b10000000000000101 ?
b10000000000000101 Y
b10000000000000101 h
b10000000000000101 i
b101010 S
b100000000101010 q
b1010000 5
b1010000 H
b1010000 M
b1010000 k
b110 m
b1000 `
b0 [
b110001110100000000101010 +
b110001110100000000101010 @
b110001110100000000101010 Z
b10000000000000101 &
b10000000000000101 >
b10000000000000101 Q
b10000000000000101 g
b10000000000000101 j
19
#160
09
#165
b1 "
b1 =
b1 _
b1 o
b1 V
02
b1 8
b1 J
b1 N
b1 ]
06
b1101 0
b1101 D
b1101 L
b1101 U
b10 #
b10 ;
b10 P
b10 ,
b10 A
b10 d
b10 r
b0 !
b0 <
b0 b
b0 p
b11 /
b11 C
b11 T
b11 \
1-
0$
0%
b10000000000001000 7
b10000000000001000 I
b10000000000001000 R
b10000000000001000 f
b10000000000000110 '
b10000000000000110 ?
b10000000000000110 Y
b10000000000000110 h
b10000000000000110 i
b10 S
b10 q
b0 n
b0 5
b0 H
b0 M
b0 k
b1000 m
b0 `
b0 a
b101 [
b10000000000000110 &
b10000000000000110 >
b10000000000000110 Q
b10000000000000110 g
b10000000000000110 j
b10101000000000000000000000010 +
b10101000000000000000000000010 @
b10101000000000000000000000010 Z
19
#170
09
#175
b10 0
b10 D
b10 L
b10 U
b1100 "
b1100 =
b1100 _
b1100 o
b1100 V
b0 #
b0 ;
b0 P
b0 ,
b0 A
b0 d
b0 r
02
b1100 8
b1100 J
b1100 N
b1100 ]
b111 !
b111 <
b111 b
b111 p
b0 /
b0 C
b0 T
b0 \
0-
1(
1.
b10000000000000111 7
b10000000000000111 I
b10000000000000111 R
b10000000000000111 f
b10000000000000111 '
b10000000000000111 ?
b10000000000000111 Y
b10000000000000111 h
b10000000000000111 i
b0 S
b0 q
b111 n
b1100 5
b1100 H
b1100 M
b1100 k
b101 m
b111 a
b101011 [
b10101100101001110000000000000000 +
b10101100101001110000000000000000 @
b10101100101001110000000000000000 Z
b10000000000000111 &
b10000000000000111 >
b10000000000000111 Q
b10000000000000111 g
b10000000000000111 j
19
#180
09
#185
b1101 "
b1101 =
b1101 _
b1101 o
b1101 V
b1101 8
b1101 J
b1101 N
b1101 ]
b1 1
b1 E
b1 K
b1 e
b1 #
b1 ;
b1 P
b1 ,
b1 A
b1 d
b1 r
b110 !
b110 <
b110 b
b110 p
b10000000000001001 7
b10000000000001001 I
b10000000000001001 R
b10000000000001001 f
b10000000000001000 '
b10000000000001000 ?
b10000000000001000 Y
b10000000000001000 h
b10000000000001000 i
b1 S
b1 q
b1010000 4
b1010000 G
b1010000 W
b1010000 c
b1010000 l
b110 n
b110 a
b10000000000001000 &
b10000000000001000 >
b10000000000001000 Q
b10000000000001000 g
b10000000000001000 j
b10101100101001100000000000000001 +
b10101100101001100000000000000001 @
b10101100101001100000000000000001 Z
19
#190
09
#195
b10 "
b10 =
b10 _
b10 o
b10 V
b10 8
b10 J
b10 N
b10 ]
b100 !
b100 <
b100 b
b100 p
0(
1$
b10000000000001010 7
b10000000000001010 I
b10000000000001010 R
b10000000000001010 f
b10000000000001001 '
b10000000000001001 ?
b10000000000001001 Y
b10000000000001001 h
b10000000000001001 i
b1 4
b1 G
b1 W
b1 c
b1 l
b100 n
b1 5
b1 H
b1 M
b1 k
b100 m
b100 a
b1000 [
b100000100001000000000000000001 +
b100000100001000000000000000001 @
b100000100001000000000000000001 Z
b10000000000001001 &
b10000000000001001 >
b10000000000001001 Q
b10000000000001001 g
b10000000000001001 j
19
#200
b11 "
b11 =
b11 _
b11 o
b11 V
b11 8
b11 J
b11 N
b11 ]
b10 5
b10 H
b10 M
b10 k
b10 4
b10 G
b10 W
b10 c
b10 l
09
#205
b110 0
b110 D
b110 L
b110 U
b0 1
b0 E
b0 K
b0 e
b1001 "
b1001 =
b1001 _
b1001 o
b1001 V
b100100000100010 #
b100100000100010 ;
b100100000100010 P
b100100000100010 ,
b100100000100010 A
b100100000100010 d
b100100000100010 r
b1001 8
b1001 J
b1001 N
b1001 ]
b1001 !
b1001 <
b1001 b
b1001 p
b10 /
b10 C
b10 T
b10 \
0.
1%
b10100100000101100 7
b10100100000101100 I
b10100100000101100 R
b10100100000101100 f
b10000000000001010 '
b10000000000001010 ?
b10000000000001010 Y
b10000000000001010 h
b10000000000001010 i
b100010 S
b100100000100010 q
b0 4
b0 G
b0 W
b0 c
b0 l
b10 n
b1001 5
b1001 H
b1001 M
b1001 k
b11 m
b1001 `
b10 a
b0 [
b10000000000001010 &
b10000000000001010 >
b10000000000001010 Q
b10000000000001010 g
b10000000000001010 j
b11000100100100000100010 +
b11000100100100000100010 @
b11000100100100000100010 Z
19
#210
09
#215
16
12
b0 "
b0 =
b0 _
b0 o
b0 V
b1101 0
b1101 D
b1101 L
b1101 U
b1111111111110101 #
b1111111111110101 ;
b1111111111110101 P
b1111111111110101 ,
b1111111111110101 A
b1111111111110101 d
b1111111111110101 r
b1001 1
b1001 E
b1001 K
b1001 e
b0 8
b0 J
b0 N
b0 ]
b1001 !
b1001 <
b1001 b
b1001 p
b11 /
b11 C
b11 T
b11 \
1-
0$
0%
b100000000000000000 7
b100000000000000000 I
b100000000000000000 R
b100000000000000000 f
b100000000000000000 '
b100000000000000000 ?
b100000000000000000 Y
b100000000000000000 h
b100000000000000000 i
b110101 S
b1111111111110101 q
b1001 4
b1001 G
b1001 W
b1001 c
b1001 l
b1001 n
b10 5
b10 H
b10 M
b10 k
b100 m
b11111 `
b1001 a
b101 [
b10100100010011111111111110101 +
b10100100010011111111111110101 @
b10100100010011111111111110101 Z
b10000000000001011 &
b10000000000001011 >
b10000000000001011 Q
b10000000000001011 g
b10000000000001011 j
19
#220
09
#225
b10 "
b10 =
b10 _
b10 o
b10 V
02
b10 8
b10 J
b10 N
b10 ]
b10 0
b10 D
b10 L
b10 U
b100000000000000001 '
b100000000000000001 ?
b100000000000000001 Y
b100000000000000001 h
b100000000000000001 i
06
b10100000100000 #
b10100000100000 ;
b10100000100000 P
b10100000100000 ,
b10100000100000 A
b10100000100000 d
b10100000100000 r
b0 1
b0 E
b0 K
b0 e
b101 !
b101 <
b101 b
b101 p
b10 /
b10 C
b10 T
b10 \
0-
1$
1%
b100010100000100001 7
b100010100000100001 I
b100010100000100001 R
b100010100000100001 f
b100000 S
b10100000100000 q
b0 4
b0 G
b0 W
b0 c
b0 l
b0 n
b101 `
b0 a
b0 [
b100000000000000001 &
b100000000000000001 >
b100000000000000001 Q
b100000000000000001 g
b100000000000000001 j
b100000000010100000100000 +
b100000000010100000100000 @
b100000000010100000100000 Z
19
#230
09
#235
b1101 "
b1101 =
b1101 _
b1101 o
b1101 V
b10 1
b10 E
b10 K
b10 e
b1101 8
b1101 J
b1101 N
b1101 ]
b100010100000100010 7
b100010100000100010 I
b100010100000100010 R
b100010100000100010 f
b100000000000000010 '
b100000000000000010 ?
b100000000000000010 Y
b100000000000000010 h
b100000000000000010 i
b10 4
b10 G
b10 W
b10 c
b10 l
b101 n
b1011 5
b1011 H
b1011 M
b1011 k
b1 m
b101 a
b1001010010100000100000 +
b1001010010100000100000 @
b1001010010100000100000 Z
b100000000000000010 &
b100000000000000010 >
b100000000000000010 Q
b100000000000000010 g
b100000000000000010 j
19
#240
b11000 "
b11000 =
b11000 _
b11000 o
b11000 V
b11000 8
b11000 J
b11000 N
b11000 ]
b1101 1
b1101 E
b1101 K
b1101 e
b1101 4
b1101 G
b1101 W
b1101 c
b1101 l
09
#245
02
b1010000 3
b1010000 F
b1010000 X
b1010000 ^
b1101 V
b1010000 "
b1010000 =
b1010000 _
b1010000 o
b10 0
b10 D
b10 L
b10 U
b0 #
b0 ;
b0 P
b0 ,
b0 A
b0 d
b0 r
b0 1
b0 E
b0 K
b0 e
b1101 8
b1101 J
b1101 N
b1101 ]
b110 !
b110 <
b110 b
b110 p
b0 /
b0 C
b0 T
b0 \
1*
1)
1.
0%
b100000000000000011 7
b100000000000000011 I
b100000000000000011 R
b100000000000000011 f
b100000000000000011 '
b100000000000000011 ?
b100000000000000011 Y
b100000000000000011 h
b100000000000000011 i
b0 S
b0 q
b1010000 4
b1010000 G
b1010000 W
b1010000 c
b1010000 l
b110 n
b1101 5
b1101 H
b1101 M
b1101 k
b101 m
b0 `
b110 a
b100011 [
b100000000000000011 &
b100000000000000011 >
b100000000000000011 Q
b100000000000000011 g
b100000000000000011 j
b10001100101001100000000000000000 +
b10001100101001100000000000000000 @
b10001100101001100000000000000000 Z
19
#250
09
#255
b11 "
b11 =
b11 _
b11 o
b11 3
b11 F
b11 X
b11 ^
b1110 V
b1110 8
b1110 J
b1110 N
b1110 ]
b1 1
b1 E
b1 K
b1 e
b1 #
b1 ;
b1 P
b1 ,
b1 A
b1 d
b1 r
b111 !
b111 <
b111 b
b111 p
b100000000000000101 7
b100000000000000101 I
b100000000000000101 R
b100000000000000101 f
b100000000000000100 '
b100000000000000100 ?
b100000000000000100 Y
b100000000000000100 h
b100000000000000100 i
b1 S
b1 q
b0 4
b0 G
b0 W
b0 c
b0 l
b111 n
b111 a
b10001100101001110000000000000001 +
b10001100101001110000000000000001 @
b10001100101001110000000000000001 Z
b100000000000000100 &
b100000000000000100 >
b100000000000000100 Q
b100000000000000100 g
b100000000000000100 j
19
#260
b11 4
b11 G
b11 W
b11 c
b11 l
09
#265
12
b111 0
b111 D
b111 L
b111 U
b11 1
b11 E
b11 K
b11 e
b1000 !
b1000 <
b1000 b
b1000 p
b0 V
b0 "
b0 =
b0 _
b0 o
b100000000101010 #
b100000000101010 ;
b100000000101010 P
b100000000101010 ,
b100000000101010 A
b100000000101010 d
b100000000101010 r
b0 8
b0 J
b0 N
b0 ]
b10 /
b10 C
b10 T
b10 \
0*
0)
0.
1%
b100100000000101111 7
b100100000000101111 I
b100100000000101111 R
b100100000000101111 f
b100000000000000101 '
b100000000000000101 ?
b100000000000000101 Y
b100000000000000101 h
b100000000000000101 i
b101010 S
b100000000101010 q
b1010000 5
b1010000 H
b1010000 M
b1010000 k
b110 m
b1000 `
b0 [
b100000000000000101 &
b100000000000000101 >
b100000000000000101 Q
b100000000000000101 g
b100000000000000101 j
b110001110100000000101010 +
b110001110100000000101010 @
b110001110100000000101010 Z
19
#270
09
